simulation/modelsim/msim_transcript
# Reading pref.tcl
# ERROR: No extended dataflow license exists
# do Codificador_Canal_run_msim_rtl_verilog.do
# if {[file exists rtl_work]} {
# 	vdel -lib rtl_work -all
# }
# vlib rtl_work
# vmap work rtl_work
# Model Technology ModelSim - Intel FPGA Edition vmap 2020.1 Lib Mapping Utility 2020.02 Feb 28 2020
# vmap work rtl_work 
# Copying C:/intelFPGA_lite/20.1/modelsim_ase/win32aloem/../modelsim.ini to modelsim.ini
# Modifying modelsim.ini
# 
# vlog -vlog01compat -work work +incdir+C:/Users/golyp/Documents/ProyectoTerminal_v/OFICIALES/Codificador_Canal {C:/Users/golyp/Documents/ProyectoTerminal_v/OFICIALES/Codificador_Canal/Top_Codificador.v}
# Model Technology ModelSim - Intel FPGA Edition vlog 2020.1 Compiler 2020.02 Feb 28 2020
# Start time: 11:37:21 on Jun 15,2026
# vlog -reportprogress 300 -vlog01compat -work work "+incdir+C:/Users/golyp/Documents/ProyectoTerminal_v/OFICIALES/Codificador_Canal" C:/Users/golyp/Documents/ProyectoTerminal_v/OFICIALES/Codificador_Canal/Top_Codificador.v 
# -- Compiling module Top_Codificador
# 
# Top level modules:
# 	Top_Codificador
# End time: 11:37:21 on Jun 15,2026, Elapsed time: 0:00:00
# Errors: 0, Warnings: 0
# vlog -vlog01compat -work work +incdir+C:/Users/golyp/Documents/ProyectoTerminal_v/OFICIALES/Codificador_Canal {C:/Users/golyp/Documents/ProyectoTerminal_v/OFICIALES/Codificador_Canal/Entrada_8bits.v}
# Model Technology ModelSim - Intel FPGA Edition vlog 2020.1 Compiler 2020.02 Feb 28 2020
# Start time: 11:37:21 on Jun 15,2026
# vlog -reportprogress 300 -vlog01compat -work work "+incdir+C:/Users/golyp/Documents/ProyectoTerminal_v/OFICIALES/Codificador_Canal" C:/Users/golyp/Documents/ProyectoTerminal_v/OFICIALES/Codificador_Canal/Entrada_8bits.v 
# -- Compiling module Entrada_8bits
# 
# Top level modules:
# 	Entrada_8bits
# End time: 11:37:21 on Jun 15,2026, Elapsed time: 0:00:00
# Errors: 0, Warnings: 0
# vlog -vlog01compat -work work +incdir+C:/Users/golyp/Documents/ProyectoTerminal_v/OFICIALES/Codificador_Canal {C:/Users/golyp/Documents/ProyectoTerminal_v/OFICIALES/Codificador_Canal/Codificador.v}
# Model Technology ModelSim - Intel FPGA Edition vlog 2020.1 Compiler 2020.02 Feb 28 2020
# Start time: 11:37:21 on Jun 15,2026
# vlog -reportprogress 300 -vlog01compat -work work "+incdir+C:/Users/golyp/Documents/ProyectoTerminal_v/OFICIALES/Codificador_Canal" C:/Users/golyp/Documents/ProyectoTerminal_v/OFICIALES/Codificador_Canal/Codificador.v 
# -- Compiling module Codificador
# 
# Top level modules:
# 	Codificador
# End time: 11:37:21 on Jun 15,2026, Elapsed time: 0:00:00
# Errors: 0, Warnings: 0
# vlog -vlog01compat -work work +incdir+C:/Users/golyp/Documents/ProyectoTerminal_v/OFICIALES/Codificador_Canal {C:/Users/golyp/Documents/ProyectoTerminal_v/OFICIALES/Codificador_Canal/Divisor_de_Frecuencia.v}
# Model Technology ModelSim - Intel FPGA Edition vlog 2020.1 Compiler 2020.02 Feb 28 2020
# Start time: 11:37:21 on Jun 15,2026
# vlog -reportprogress 300 -vlog01compat -work work "+incdir+C:/Users/golyp/Documents/ProyectoTerminal_v/OFICIALES/Codificador_Canal" C:/Users/golyp/Documents/ProyectoTerminal_v/OFICIALES/Codificador_Canal/Divisor_de_Frecuencia.v 
# -- Compiling module Divisor_de_Frecuencia
# 
# Top level modules:
# 	Divisor_de_Frecuencia
# End time: 11:37:22 on Jun 15,2026, Elapsed time: 0:00:01
# Errors: 0, Warnings: 0
# vlog -vlog01compat -work work +incdir+C:/Users/golyp/Documents/ProyectoTerminal_v/OFICIALES/Codificador_Canal {C:/Users/golyp/Documents/ProyectoTerminal_v/OFICIALES/Codificador_Canal/Control_Antirrebote.v}
# Model Technology ModelSim - Intel FPGA Edition vlog 2020.1 Compiler 2020.02 Feb 28 2020
# Start time: 11:37:22 on Jun 15,2026
# vlog -reportprogress 300 -vlog01compat -work work "+incdir+C:/Users/golyp/Documents/ProyectoTerminal_v/OFICIALES/Codificador_Canal" C:/Users/golyp/Documents/ProyectoTerminal_v/OFICIALES/Codificador_Canal/Control_Antirrebote.v 
# -- Compiling module Control_Antirebote
# 
# Top level modules:
# 	Control_Antirebote
# End time: 11:37:22 on Jun 15,2026, Elapsed time: 0:00:00
# Errors: 0, Warnings: 0
# vlog -vlog01compat -work work +incdir+C:/Users/golyp/Documents/ProyectoTerminal_v/OFICIALES/Codificador_Canal {C:/Users/golyp/Documents/ProyectoTerminal_v/OFICIALES/Codificador_Canal/Acumulador_Cod.v}
# Model Technology ModelSim - Intel FPGA Edition vlog 2020.1 Compiler 2020.02 Feb 28 2020
# Start time: 11:37:22 on Jun 15,2026
# vlog -reportprogress 300 -vlog01compat -work work "+incdir+C:/Users/golyp/Documents/ProyectoTerminal_v/OFICIALES/Codificador_Canal" C:/Users/golyp/Documents/ProyectoTerminal_v/OFICIALES/Codificador_Canal/Acumulador_Cod.v 
# -- Compiling module Acumulador_Cod
# 
# Top level modules:
# 	Acumulador_Cod
# End time: 11:37:22 on Jun 15,2026, Elapsed time: 0:00:00
# Errors: 0, Warnings: 0
# vlog -vlog01compat -work work +incdir+C:/Users/golyp/Documents/ProyectoTerminal_v/OFICIALES/Codificador_Canal {C:/Users/golyp/Documents/ProyectoTerminal_v/OFICIALES/Codificador_Canal/Control_Cod.v}
# Model Technology ModelSim - Intel FPGA Edition vlog 2020.1 Compiler 2020.02 Feb 28 2020
# Start time: 11:37:22 on Jun 15,2026
# vlog -reportprogress 300 -vlog01compat -work work "+incdir+C:/Users/golyp/Documents/ProyectoTerminal_v/OFICIALES/Codificador_Canal" C:/Users/golyp/Documents/ProyectoTerminal_v/OFICIALES/Codificador_Canal/Control_Cod.v 
# -- Compiling module Control_Cod
# 
# Top level modules:
# 	Control_Cod
# End time: 11:37:22 on Jun 15,2026, Elapsed time: 0:00:00
# Errors: 0, Warnings: 0
# vlog -vlog01compat -work work +incdir+C:/Users/golyp/Documents/ProyectoTerminal_v/OFICIALES/Codificador_Canal {C:/Users/golyp/Documents/ProyectoTerminal_v/OFICIALES/Codificador_Canal/Serializador_de_Entrada.v}
# Model Technology ModelSim - Intel FPGA Edition vlog 2020.1 Compiler 2020.02 Feb 28 2020
# Start time: 11:37:22 on Jun 15,2026
# vlog -reportprogress 300 -vlog01compat -work work "+incdir+C:/Users/golyp/Documents/ProyectoTerminal_v/OFICIALES/Codificador_Canal" C:/Users/golyp/Documents/ProyectoTerminal_v/OFICIALES/Codificador_Canal/Serializador_de_Entrada.v 
# -- Compiling module Serializador_de_Entrada
# 
# Top level modules:
# 	Serializador_de_Entrada
# End time: 11:37:22 on Jun 15,2026, Elapsed time: 0:00:00
# Errors: 0, Warnings: 0
# vlog -vlog01compat -work work +incdir+C:/Users/golyp/Documents/ProyectoTerminal_v/OFICIALES/Codificador_Canal {C:/Users/golyp/Documents/ProyectoTerminal_v/OFICIALES/Codificador_Canal/Shift_Register.v}
# Model Technology ModelSim - Intel FPGA Edition vlog 2020.1 Compiler 2020.02 Feb 28 2020
# Start time: 11:37:22 on Jun 15,2026
# vlog -reportprogress 300 -vlog01compat -work work "+incdir+C:/Users/golyp/Documents/ProyectoTerminal_v/OFICIALES/Codificador_Canal" C:/Users/golyp/Documents/ProyectoTerminal_v/OFICIALES/Codificador_Canal/Shift_Register.v 
# -- Compiling module Shift_Register
# 
# Top level modules:
# 	Shift_Register
# End time: 11:37:22 on Jun 15,2026, Elapsed time: 0:00:00
# Errors: 0, Warnings: 0
# vlog -vlog01compat -work work +incdir+C:/Users/golyp/Documents/ProyectoTerminal_v/OFICIALES/Codificador_Canal {C:/Users/golyp/Documents/ProyectoTerminal_v/OFICIALES/Codificador_Canal/Paridad_Convolucional.v}
# Model Technology ModelSim - Intel FPGA Edition vlog 2020.1 Compiler 2020.02 Feb 28 2020
# Start time: 11:37:22 on Jun 15,2026
# vlog -reportprogress 300 -vlog01compat -work work "+incdir+C:/Users/golyp/Documents/ProyectoTerminal_v/OFICIALES/Codificador_Canal" C:/Users/golyp/Documents/ProyectoTerminal_v/OFICIALES/Codificador_Canal/Paridad_Convolucional.v 
# -- Compiling module Paridad_Convolucional
# 
# Top level modules:
# 	Paridad_Convolucional
# End time: 11:37:22 on Jun 15,2026, Elapsed time: 0:00:00
# Errors: 0, Warnings: 0
# 
# vlog -vlog01compat -work work +incdir+C:/Users/golyp/Documents/ProyectoTerminal_v/OFICIALES/Codificador_Canal/simulation/modelsim {C:/Users/golyp/Documents/ProyectoTerminal_v/OFICIALES/Codificador_Canal/simulation/modelsim/Top_Codificador.vt}
# Model Technology ModelSim - Intel FPGA Edition vlog 2020.1 Compiler 2020.02 Feb 28 2020
# Start time: 11:37:22 on Jun 15,2026
# vlog -reportprogress 300 -vlog01compat -work work "+incdir+C:/Users/golyp/Documents/ProyectoTerminal_v/OFICIALES/Codificador_Canal/simulation/modelsim" C:/Users/golyp/Documents/ProyectoTerminal_v/OFICIALES/Codificador_Canal/simulation/modelsim/Top_Codificador.vt 
# -- Compiling module Top_Codificador_vlg_tst
# 
# Top level modules:
# 	Top_Codificador_vlg_tst
# End time: 11:37:22 on Jun 15,2026, Elapsed time: 0:00:00
# Errors: 0, Warnings: 0
# 
# vsim -t 1ps -L altera_ver -L lpm_ver -L sgate_ver -L altera_mf_ver -L altera_lnsim_ver -L maxii_ver -L rtl_work -L work -voptargs="+acc"  Top_Codificador_vlg_tst
# vsim -t 1ps -L altera_ver -L lpm_ver -L sgate_ver -L altera_mf_ver -L altera_lnsim_ver -L maxii_ver -L rtl_work -L work -voptargs=""+acc"" Top_Codificador_vlg_tst 
# Start time: 11:37:22 on Jun 15,2026
# Loading work.Top_Codificador_vlg_tst
# Loading work.Top_Codificador
# Loading work.Divisor_de_Frecuencia
# Loading work.Entrada_8bits
# Loading work.Control_Antirebote
# Loading work.Codificador
# Loading work.Control_Cod
# Loading work.Serializador_de_Entrada
# Loading work.Shift_Register
# Loading work.Paridad_Convolucional
# Loading work.Acumulador_Cod
# 
# add wave *
# view structure
# .main_pane.structure.interior.cs.body.struct
# view signals
# .main_pane.objects.interior.cs.body.tree
# run -all
# [PASS] palabra=00000000  leds=00000000000000000000  esperado=00000000000000000000  valid_pulses=11  @t=3315000
#   S1 (G1, 11b)       = 00000000000
#   S2 (G2, 11b)       = 00000000000
#   PARES (22b tiempo) = 0000000000000000000000
# [PASS] palabra=00000001  leds=00000000000000111011  esperado=00000000000000111011  valid_pulses=11  @t=6195000
#   S1 (G1, 11b)       = 00000001110
#   S2 (G2, 11b)       = 00000001010
#   PARES (22b tiempo) = 0000000000000011101100
# [PASS] palabra=00000010  leds=00000000000011101100  esperado=00000000000011101100  valid_pulses=11  @t=9075000
#   S1 (G1, 11b)       = 00000011100
#   S2 (G2, 11b)       = 00000010100
#   PARES (22b tiempo) = 0000000000001110110000
# [PASS] palabra=00000011  leds=00000000000011010111  esperado=00000000000011010111  valid_pulses=11  @t=11955000
#   S1 (G1, 11b)       = 00000010010
#   S2 (G2, 11b)       = 00000011110
#   PARES (22b tiempo) = 0000000000001101011100
# [PASS] palabra=00000100  leds=00000000001110110000  esperado=00000000001110110000  valid_pulses=11  @t=14835000
#   S1 (G1, 11b)       = 00000111000
#   S2 (G2, 11b)       = 00000101000
#   PARES (22b tiempo) = 0000000000111011000000
# [PASS] palabra=00000101  leds=00000000001110001011  esperado=00000000001110001011  valid_pulses=11  @t=17715000
#   S1 (G1, 11b)       = 00000110110
#   S2 (G2, 11b)       = 00000100010
#   PARES (22b tiempo) = 0000000000111000101100
# [PASS] palabra=00000110  leds=00000000001101011100  esperado=00000000001101011100  valid_pulses=11  @t=20595000
#   S1 (G1, 11b)       = 00000100100
#   S2 (G2, 11b)       = 00000111100
#   PARES (22b tiempo) = 0000000000110101110000
# [PASS] palabra=00000111  leds=00000000001101100111  esperado=00000000001101100111  valid_pulses=11  @t=23475000
#   S1 (G1, 11b)       = 00000101010
#   S2 (G2, 11b)       = 00000110110
#   PARES (22b tiempo) = 0000000000110110011100
# [PASS] palabra=00001000  leds=00000000111011000000  esperado=00000000111011000000  valid_pulses=11  @t=26355000
#   S1 (G1, 11b)       = 00001110000
#   S2 (G2, 11b)       = 00001010000
#   PARES (22b tiempo) = 0000000011101100000000
# [PASS] palabra=00001001  leds=00000000111011111011  esperado=00000000111011111011  valid_pulses=11  @t=29235000
#   S1 (G1, 11b)       = 00001111110
#   S2 (G2, 11b)       = 00001011010
#   PARES (22b tiempo) = 0000000011101111101100
# [PASS] palabra=00001010  leds=00000000111000101100  esperado=00000000111000101100  valid_pulses=11  @t=32115000
#   S1 (G1, 11b)       = 00001101100
#   S2 (G2, 11b)       = 00001000100
#   PARES (22b tiempo) = 0000000011100010110000
# [PASS] palabra=00001011  leds=00000000111000010111  esperado=00000000111000010111  valid_pulses=11  @t=34995000
#   S1 (G1, 11b)       = 00001100010
#   S2 (G2, 11b)       = 00001001110
#   PARES (22b tiempo) = 0000000011100001011100
# [PASS] palabra=00001100  leds=00000000110101110000  esperado=00000000110101110000  valid_pulses=11  @t=37875000
#   S1 (G1, 11b)       = 00001001000
#   S2 (G2, 11b)       = 00001111000
#   PARES (22b tiempo) = 0000000011010111000000
# [PASS] palabra=00001101  leds=00000000110101001011  esperado=00000000110101001011  valid_pulses=11  @t=40755000
#   S1 (G1, 11b)       = 00001000110
#   S2 (G2, 11b)       = 00001110010
#   PARES (22b tiempo) = 0000000011010100101100
# [PASS] palabra=00001110  leds=00000000110110011100  esperado=00000000110110011100  valid_pulses=11  @t=43635000
#   S1 (G1, 11b)       = 00001010100
#   S2 (G2, 11b)       = 00001101100
#   PARES (22b tiempo) = 0000000011011001110000
# [PASS] palabra=00001111  leds=00000000110110100111  esperado=00000000110110100111  valid_pulses=11  @t=46515000
#   S1 (G1, 11b)       = 00001011010
#   S2 (G2, 11b)       = 00001100110
#   PARES (22b tiempo) = 0000000011011010011100
# [PASS] palabra=00010000  leds=00000011101100000000  esperado=00000011101100000000  valid_pulses=11  @t=49395000
#   S1 (G1, 11b)       = 00011100000
#   S2 (G2, 11b)       = 00010100000
#   PARES (22b tiempo) = 0000001110110000000000
# [PASS] palabra=00010001  leds=00000011101100111011  esperado=00000011101100111011  valid_pulses=11  @t=52275000
#   S1 (G1, 11b)       = 00011101110
#   S2 (G2, 11b)       = 00010101010
#   PARES (22b tiempo) = 0000001110110011101100
# [PASS] palabra=00010010  leds=00000011101111101100  esperado=00000011101111101100  valid_pulses=11  @t=55155000
#   S1 (G1, 11b)       = 00011111100
#   S2 (G2, 11b)       = 00010110100
#   PARES (22b tiempo) = 0000001110111110110000
# [PASS] palabra=00010011  leds=00000011101111010111  esperado=00000011101111010111  valid_pulses=11  @t=58035000
#   S1 (G1, 11b)       = 00011110010
#   S2 (G2, 11b)       = 00010111110
#   PARES (22b tiempo) = 0000001110111101011100
# [PASS] palabra=00010100  leds=00000011100010110000  esperado=00000011100010110000  valid_pulses=11  @t=60915000
#   S1 (G1, 11b)       = 00011011000
#   S2 (G2, 11b)       = 00010001000
#   PARES (22b tiempo) = 0000001110001011000000
# [PASS] palabra=00010101  leds=00000011100010001011  esperado=00000011100010001011  valid_pulses=11  @t=63795000
#   S1 (G1, 11b)       = 00011010110
#   S2 (G2, 11b)       = 00010000010
#   PARES (22b tiempo) = 0000001110001000101100
# [PASS] palabra=00010110  leds=00000011100001011100  esperado=00000011100001011100  valid_pulses=11  @t=66675000
#   S1 (G1, 11b)       = 00011000100
#   S2 (G2, 11b)       = 00010011100
#   PARES (22b tiempo) = 0000001110000101110000
# [PASS] palabra=00010111  leds=00000011100001100111  esperado=00000011100001100111  valid_pulses=11  @t=69555000
#   S1 (G1, 11b)       = 00011001010
#   S2 (G2, 11b)       = 00010010110
#   PARES (22b tiempo) = 0000001110000110011100
# [PASS] palabra=00011000  leds=00000011010111000000  esperado=00000011010111000000  valid_pulses=11  @t=72435000
#   S1 (G1, 11b)       = 00010010000
#   S2 (G2, 11b)       = 00011110000
#   PARES (22b tiempo) = 0000001101011100000000
# [PASS] palabra=00011001  leds=00000011010111111011  esperado=00000011010111111011  valid_pulses=11  @t=75315000
#   S1 (G1, 11b)       = 00010011110
#   S2 (G2, 11b)       = 00011111010
#   PARES (22b tiempo) = 0000001101011111101100
# [PASS] palabra=00011010  leds=00000011010100101100  esperado=00000011010100101100  valid_pulses=11  @t=78195000
#   S1 (G1, 11b)       = 00010001100
#   S2 (G2, 11b)       = 00011100100
#   PARES (22b tiempo) = 0000001101010010110000
# [PASS] palabra=00011011  leds=00000011010100010111  esperado=00000011010100010111  valid_pulses=11  @t=81075000
#   S1 (G1, 11b)       = 00010000010
#   S2 (G2, 11b)       = 00011101110
#   PARES (22b tiempo) = 0000001101010001011100
# [PASS] palabra=00011100  leds=00000011011001110000  esperado=00000011011001110000  valid_pulses=11  @t=83955000
#   S1 (G1, 11b)       = 00010101000
#   S2 (G2, 11b)       = 00011011000
#   PARES (22b tiempo) = 0000001101100111000000
# [PASS] palabra=00011101  leds=00000011011001001011  esperado=00000011011001001011  valid_pulses=11  @t=86835000
#   S1 (G1, 11b)       = 00010100110
#   S2 (G2, 11b)       = 00011010010
#   PARES (22b tiempo) = 0000001101100100101100
# [PASS] palabra=00011110  leds=00000011011010011100  esperado=00000011011010011100  valid_pulses=11  @t=89715000
#   S1 (G1, 11b)       = 00010110100
#   S2 (G2, 11b)       = 00011001100
#   PARES (22b tiempo) = 0000001101101001110000
# [PASS] palabra=00011111  leds=00000011011010100111  esperado=00000011011010100111  valid_pulses=11  @t=92595000
#   S1 (G1, 11b)       = 00010111010
#   S2 (G2, 11b)       = 00011000110
#   PARES (22b tiempo) = 0000001101101010011100
# [PASS] palabra=00100000  leds=00001110110000000000  esperado=00001110110000000000  valid_pulses=11  @t=95475000
#   S1 (G1, 11b)       = 00111000000
#   S2 (G2, 11b)       = 00101000000
#   PARES (22b tiempo) = 0000111011000000000000
# [PASS] palabra=00100001  leds=00001110110000111011  esperado=00001110110000111011  valid_pulses=11  @t=98355000
#   S1 (G1, 11b)       = 00111001110
#   S2 (G2, 11b)       = 00101001010
#   PARES (22b tiempo) = 0000111011000011101100
# [PASS] palabra=00100010  leds=00001110110011101100  esperado=00001110110011101100  valid_pulses=11  @t=101235000
#   S1 (G1, 11b)       = 00111011100
#   S2 (G2, 11b)       = 00101010100
#   PARES (22b tiempo) = 0000111011001110110000
# [PASS] palabra=00100011  leds=00001110110011010111  esperado=00001110110011010111  valid_pulses=11  @t=104115000
#   S1 (G1, 11b)       = 00111010010
#   S2 (G2, 11b)       = 00101011110
#   PARES (22b tiempo) = 0000111011001101011100
# [PASS] palabra=00100100  leds=00001110111110110000  esperado=00001110111110110000  valid_pulses=11  @t=106995000
#   S1 (G1, 11b)       = 00111111000
#   S2 (G2, 11b)       = 00101101000
#   PARES (22b tiempo) = 0000111011111011000000
# [PASS] palabra=00100101  leds=00001110111110001011  esperado=00001110111110001011  valid_pulses=11  @t=109875000
#   S1 (G1, 11b)       = 00111110110
#   S2 (G2, 11b)       = 00101100010
#   PARES (22b tiempo) = 0000111011111000101100
# [PASS] palabra=00100110  leds=00001110111101011100  esperado=00001110111101011100  valid_pulses=11  @t=112755000
#   S1 (G1, 11b)       = 00111100100
#   S2 (G2, 11b)       = 00101111100
#   PARES (22b tiempo) = 0000111011110101110000
# [PASS] palabra=00100111  leds=00001110111101100111  esperado=00001110111101100111  valid_pulses=11  @t=115635000
#   S1 (G1, 11b)       = 00111101010
#   S2 (G2, 11b)       = 00101110110
#   PARES (22b tiempo) = 0000111011110110011100
# [PASS] palabra=00101000  leds=00001110001011000000  esperado=00001110001011000000  valid_pulses=11  @t=118515000
#   S1 (G1, 11b)       = 00110110000
#   S2 (G2, 11b)       = 00100010000
#   PARES (22b tiempo) = 0000111000101100000000
# [PASS] palabra=00101001  leds=00001110001011111011  esperado=00001110001011111011  valid_pulses=11  @t=121395000
#   S1 (G1, 11b)       = 00110111110
#   S2 (G2, 11b)       = 00100011010
#   PARES (22b tiempo) = 0000111000101111101100
# [PASS] palabra=00101010  leds=00001110001000101100  esperado=00001110001000101100  valid_pulses=11  @t=124275000
#   S1 (G1, 11b)       = 00110101100
#   S2 (G2, 11b)       = 00100000100
#   PARES (22b tiempo) = 0000111000100010110000
# [PASS] palabra=00101011  leds=00001110001000010111  esperado=00001110001000010111  valid_pulses=11  @t=127155000
#   S1 (G1, 11b)       = 00110100010
#   S2 (G2, 11b)       = 00100001110
#   PARES (22b tiempo) = 0000111000100001011100
# [PASS] palabra=00101100  leds=00001110000101110000  esperado=00001110000101110000  valid_pulses=11  @t=130035000
#   S1 (G1, 11b)       = 00110001000
#   S2 (G2, 11b)       = 00100111000
#   PARES (22b tiempo) = 0000111000010111000000
# [PASS] palabra=00101101  leds=00001110000101001011  esperado=00001110000101001011  valid_pulses=11  @t=132915000
#   S1 (G1, 11b)       = 00110000110
#   S2 (G2, 11b)       = 00100110010
#   PARES (22b tiempo) = 0000111000010100101100
# [PASS] palabra=00101110  leds=00001110000110011100  esperado=00001110000110011100  valid_pulses=11  @t=135795000
#   S1 (G1, 11b)       = 00110010100
#   S2 (G2, 11b)       = 00100101100
#   PARES (22b tiempo) = 0000111000011001110000
# [PASS] palabra=00101111  leds=00001110000110100111  esperado=00001110000110100111  valid_pulses=11  @t=138675000
#   S1 (G1, 11b)       = 00110011010
#   S2 (G2, 11b)       = 00100100110
#   PARES (22b tiempo) = 0000111000011010011100
# [PASS] palabra=00110000  leds=00001101011100000000  esperado=00001101011100000000  valid_pulses=11  @t=141555000
#   S1 (G1, 11b)       = 00100100000
#   S2 (G2, 11b)       = 00111100000
#   PARES (22b tiempo) = 0000110101110000000000
# [PASS] palabra=00110001  leds=00001101011100111011  esperado=00001101011100111011  valid_pulses=11  @t=144435000
#   S1 (G1, 11b)       = 00100101110
#   S2 (G2, 11b)       = 00111101010
#   PARES (22b tiempo) = 0000110101110011101100
# [PASS] palabra=00110010  leds=00001101011111101100  esperado=00001101011111101100  valid_pulses=11  @t=147315000
#   S1 (G1, 11b)       = 00100111100
#   S2 (G2, 11b)       = 00111110100
#   PARES (22b tiempo) = 0000110101111110110000
# [PASS] palabra=00110011  leds=00001101011111010111  esperado=00001101011111010111  valid_pulses=11  @t=150195000
#   S1 (G1, 11b)       = 00100110010
#   S2 (G2, 11b)       = 00111111110
#   PARES (22b tiempo) = 0000110101111101011100
# [PASS] palabra=00110100  leds=00001101010010110000  esperado=00001101010010110000  valid_pulses=11  @t=153075000
#   S1 (G1, 11b)       = 00100011000
#   S2 (G2, 11b)       = 00111001000
#   PARES (22b tiempo) = 0000110101001011000000
# [PASS] palabra=00110101  leds=00001101010010001011  esperado=00001101010010001011  valid_pulses=11  @t=155955000
#   S1 (G1, 11b)       = 00100010110
#   S2 (G2, 11b)       = 00111000010
#   PARES (22b tiempo) = 0000110101001000101100
# [PASS] palabra=00110110  leds=00001101010001011100  esperado=00001101010001011100  valid_pulses=11  @t=158835000
#   S1 (G1, 11b)       = 00100000100
#   S2 (G2, 11b)       = 00111011100
#   PARES (22b tiempo) = 0000110101000101110000
# [PASS] palabra=00110111  leds=00001101010001100111  esperado=00001101010001100111  valid_pulses=11  @t=161715000
#   S1 (G1, 11b)       = 00100001010
#   S2 (G2, 11b)       = 00111010110
#   PARES (22b tiempo) = 0000110101000110011100
# [PASS] palabra=00111000  leds=00001101100111000000  esperado=00001101100111000000  valid_pulses=11  @t=164595000
#   S1 (G1, 11b)       = 00101010000
#   S2 (G2, 11b)       = 00110110000
#   PARES (22b tiempo) = 0000110110011100000000
# [PASS] palabra=00111001  leds=00001101100111111011  esperado=00001101100111111011  valid_pulses=11  @t=167475000
#   S1 (G1, 11b)       = 00101011110
#   S2 (G2, 11b)       = 00110111010
#   PARES (22b tiempo) = 0000110110011111101100
# [PASS] palabra=00111010  leds=00001101100100101100  esperado=00001101100100101100  valid_pulses=11  @t=170355000
#   S1 (G1, 11b)       = 00101001100
#   S2 (G2, 11b)       = 00110100100
#   PARES (22b tiempo) = 0000110110010010110000
# [PASS] palabra=00111011  leds=00001101100100010111  esperado=00001101100100010111  valid_pulses=11  @t=173235000
#   S1 (G1, 11b)       = 00101000010
#   S2 (G2, 11b)       = 00110101110
#   PARES (22b tiempo) = 0000110110010001011100
# [PASS] palabra=00111100  leds=00001101101001110000  esperado=00001101101001110000  valid_pulses=11  @t=176115000
#   S1 (G1, 11b)       = 00101101000
#   S2 (G2, 11b)       = 00110011000
#   PARES (22b tiempo) = 0000110110100111000000
# [PASS] palabra=00111101  leds=00001101101001001011  esperado=00001101101001001011  valid_pulses=11  @t=178995000
#   S1 (G1, 11b)       = 00101100110
#   S2 (G2, 11b)       = 00110010010
#   PARES (22b tiempo) = 0000110110100100101100
# [PASS] palabra=00111110  leds=00001101101010011100  esperado=00001101101010011100  valid_pulses=11  @t=181875000
#   S1 (G1, 11b)       = 00101110100
#   S2 (G2, 11b)       = 00110001100
#   PARES (22b tiempo) = 0000110110101001110000
# [PASS] palabra=00111111  leds=00001101101010100111  esperado=00001101101010100111  valid_pulses=11  @t=184755000
#   S1 (G1, 11b)       = 00101111010
#   S2 (G2, 11b)       = 00110000110
#   PARES (22b tiempo) = 0000110110101010011100
# [PASS] palabra=01000000  leds=00111011000000000000  esperado=00111011000000000000  valid_pulses=11  @t=187635000
#   S1 (G1, 11b)       = 01110000000
#   S2 (G2, 11b)       = 01010000000
#   PARES (22b tiempo) = 0011101100000000000000
# [PASS] palabra=01000001  leds=00111011000000111011  esperado=00111011000000111011  valid_pulses=11  @t=190515000
#   S1 (G1, 11b)       = 01110001110
#   S2 (G2, 11b)       = 01010001010
#   PARES (22b tiempo) = 0011101100000011101100
# [PASS] palabra=01000010  leds=00111011000011101100  esperado=00111011000011101100  valid_pulses=11  @t=193395000
#   S1 (G1, 11b)       = 01110011100
#   S2 (G2, 11b)       = 01010010100
#   PARES (22b tiempo) = 0011101100001110110000
# [PASS] palabra=01000011  leds=00111011000011010111  esperado=00111011000011010111  valid_pulses=11  @t=196275000
#   S1 (G1, 11b)       = 01110010010
#   S2 (G2, 11b)       = 01010011110
#   PARES (22b tiempo) = 0011101100001101011100
# [PASS] palabra=01000100  leds=00111011001110110000  esperado=00111011001110110000  valid_pulses=11  @t=199155000
#   S1 (G1, 11b)       = 01110111000
#   S2 (G2, 11b)       = 01010101000
#   PARES (22b tiempo) = 0011101100111011000000
# [PASS] palabra=01000101  leds=00111011001110001011  esperado=00111011001110001011  valid_pulses=11  @t=202035000
#   S1 (G1, 11b)       = 01110110110
#   S2 (G2, 11b)       = 01010100010
#   PARES (22b tiempo) = 0011101100111000101100
# [PASS] palabra=01000110  leds=00111011001101011100  esperado=00111011001101011100  valid_pulses=11  @t=204915000
#   S1 (G1, 11b)       = 01110100100
#   S2 (G2, 11b)       = 01010111100
#   PARES (22b tiempo) = 0011101100110101110000
# [PASS] palabra=01000111  leds=00111011001101100111  esperado=00111011001101100111  valid_pulses=11  @t=207795000
#   S1 (G1, 11b)       = 01110101010
#   S2 (G2, 11b)       = 01010110110
#   PARES (22b tiempo) = 0011101100110110011100
# [PASS] palabra=01001000  leds=00111011111011000000  esperado=00111011111011000000  valid_pulses=11  @t=210675000
#   S1 (G1, 11b)       = 01111110000
#   S2 (G2, 11b)       = 01011010000
#   PARES (22b tiempo) = 0011101111101100000000
# [PASS] palabra=01001001  leds=00111011111011111011  esperado=00111011111011111011  valid_pulses=11  @t=213555000
#   S1 (G1, 11b)       = 01111111110
#   S2 (G2, 11b)       = 01011011010
#   PARES (22b tiempo) = 0011101111101111101100
# [PASS] palabra=01001010  leds=00111011111000101100  esperado=00111011111000101100  valid_pulses=11  @t=216435000
#   S1 (G1, 11b)       = 01111101100
#   S2 (G2, 11b)       = 01011000100
#   PARES (22b tiempo) = 0011101111100010110000
# [PASS] palabra=01001011  leds=00111011111000010111  esperado=00111011111000010111  valid_pulses=11  @t=219315000
#   S1 (G1, 11b)       = 01111100010
#   S2 (G2, 11b)       = 01011001110
#   PARES (22b tiempo) = 0011101111100001011100
# [PASS] palabra=01001100  leds=00111011110101110000  esperado=00111011110101110000  valid_pulses=11  @t=222195000
#   S1 (G1, 11b)       = 01111001000
#   S2 (G2, 11b)       = 01011111000
#   PARES (22b tiempo) = 0011101111010111000000
# [PASS] palabra=01001101  leds=00111011110101001011  esperado=00111011110101001011  valid_pulses=11  @t=225075000
#   S1 (G1, 11b)       = 01111000110
#   S2 (G2, 11b)       = 01011110010
#   PARES (22b tiempo) = 0011101111010100101100
# [PASS] palabra=01001110  leds=00111011110110011100  esperado=00111011110110011100  valid_pulses=11  @t=227955000
#   S1 (G1, 11b)       = 01111010100
#   S2 (G2, 11b)       = 01011101100
#   PARES (22b tiempo) = 0011101111011001110000
# [PASS] palabra=01001111  leds=00111011110110100111  esperado=00111011110110100111  valid_pulses=11  @t=230835000
#   S1 (G1, 11b)       = 01111011010
#   S2 (G2, 11b)       = 01011100110
#   PARES (22b tiempo) = 0011101111011010011100
# [PASS] palabra=01010000  leds=00111000101100000000  esperado=00111000101100000000  valid_pulses=11  @t=233715000
#   S1 (G1, 11b)       = 01101100000
#   S2 (G2, 11b)       = 01000100000
#   PARES (22b tiempo) = 0011100010110000000000
# [PASS] palabra=01010001  leds=00111000101100111011  esperado=00111000101100111011  valid_pulses=11  @t=236595000
#   S1 (G1, 11b)       = 01101101110
#   S2 (G2, 11b)       = 01000101010
#   PARES (22b tiempo) = 0011100010110011101100
